{
	"info": {
		"_postman_id": "8a5d7992-e786-4c0f-ba79-208e281cccb2",
		"name": "Sprouts_API_Collection",
		"schema": "https://schema.getpostman.com/json/collection/v2.1.0/collection.json",
		"_exporter_id": "19793921"
	},
	"item": [
		{
			"name": "Login",
			"event": [
				{
					"listen": "test",
					"script": {
						"exec": [
							"const response = pm.response.json();",
							"pm.environment.set('authToken', response.obj.accessToken);",
							"",
							"console.log(\"Response Status: \" + pm.response.code);",
							"console.log(\"Response Body: \" + pm.response.text());"
						],
						"type": "text/javascript",
						"packages": {}
					}
				}
			],
			"request": {
				"method": "POST",
				"header": [
					{
						"key": "Content-Type",
						"value": "application/json",
						"type": "text"
					}
				],
				"body": {
					"mode": "raw",
					"raw": "{\n    \"email\": \"rajkiran@sprouts.ai\",\n    \"password\": \"Sprouts@123\"\n}",
					"options": {
						"raw": {
							"language": "json"
						}
					}
				},
				"url": {
					"raw": "https://qams.sprouts.ai:5000/login",
					"protocol": "https",
					"host": [
						"qams",
						"sprouts",
						"ai"
					],
					"port": "5000",
					"path": [
						"login"
					]
				}
			},
			"response": []
		},
		{
			"name": "WebsiteVistis",
			"event": [
				{
					"listen": "prerequest",
					"script": {
						"exec": [
							"// Get the current date",
							"const now = new Date();",
							"const year = now.getFullYear();",
							"const month = String(now.getMonth() + 1).padStart(2, '0');",
							"const day = String(now.getDate()).padStart(2, '0');",
							"",
							"// Format the dates",
							"const fromDate = `${year}-${month}-${day} 00:00:01`;",
							"const toDate = `${year}-${month}-${day} 23:59:59`;",
							"",
							"// Set the dates as environment variables",
							"pm.environment.set('fromDate', fromDate);",
							"pm.environment.set('toDate', toDate);",
							"",
							""
						],
						"type": "text/javascript",
						"packages": {}
					}
				},
				{
					"listen": "test",
					"script": {
						"exec": [
							"console.log(\"Request Body: \" + pm.request.body);",
							"console.log(\"Response Status: \" + pm.response.code);",
							"console.log(\"Response Body: \" + pm.response.text());",
							"",
							"// Extract the customerData array from the response",
							"let customerDataArray = pm.response.json().customerData;",
							"",
							"let fromDate = pm.environment.get(\"fromDate\");",
							"let toDate = pm.environment.get(\"toDate\");",
							"",
							"let fromDateResponse = new Date(fromDate);",
							"let toDateResponse = new Date(toDate);",
							"",
							"let isAllDatesValid = true;",
							"let isLastModifiedDateAvailable = true;",
							"// Flag to track if any object has noOfHits > 1",
							"let isNoOfHitsMoreThanOne = false;",
							"",
							"for (let customerData of customerDataArray) {",
							"    if (customerData.noOfHits > 0) {",
							"        isNoOfHitsMoreThanOne = true;",
							"        break; // Exit the loop once the condition is met",
							"    }",
							"}",
							"",
							"// Iterate over each customer and verify if the lastModifiedDate is within the current date range",
							"customerDataArray.forEach(customer => {",
							"",
							"    ",
							"    let lastModifiedDate = new Date(customer.lastModifiedDate);",
							"    if (lastModifiedDate < fromDateResponse || lastModifiedDate > toDateResponse) {",
							"        isAllDatesValid = false;",
							"    }",
							"});",
							"",
							"pm.test(\"All lastModifiedDate are within today's date\", function () {",
							"   if (customerDataArray.length > 0) {",
							"    pm.expect(isAllDatesValid,\"Last Modified date is not withing today's range\").to.be.true;",
							"    pm.expect(isNoOfHitsMoreThanOne, \"No object in customerData has noOfHits greater than 1\").to.be.true;",
							"   }",
							"    else {",
							"        isLastModifiedDateAvailable = false;",
							"    }",
							"    pm.expect(isLastModifiedDateAvailable,\"Last Modified date key is not available\").to.be.true;",
							"});",
							""
						],
						"type": "text/javascript",
						"packages": {}
					}
				}
			],
			"request": {
				"method": "POST",
				"header": [
					{
						"key": "Authorization",
						"value": "Bearer {{authToken}}",
						"type": "text"
					},
					{
						"key": "Content-Type",
						"value": "application/json",
						"type": "text"
					}
				],
				"body": {
					"mode": "raw",
					"raw": "{\n    \"uniqueID\": \"1b7a366e76329297d60921937c194adb\",\n    \"emailID\": \"rajkiran@sprouts.ai\",\n    \"filterArray\": [\n        {\n            \"filterName\": \"Last Visited Date\",\n            \"dateRange\": {\n                \"fromDate\": \"{{fromDate}}\",\n                \"toDate\": \"{{toDate}}\"\n            },\n            \"filterType\": \"date-range\"\n        }\n    ],\n    \"sortColumn\": \"\",\n    \"order\": \"\",\n    \"page\": 0,\n    \"size\": 20\n}",
					"options": {
						"raw": {
							"language": "json"
						}
					}
				},
				"url": {
					"raw": "https://qams.sprouts.ai:6060/getIpDetailsForCustomer",
					"protocol": "https",
					"host": [
						"qams",
						"sprouts",
						"ai"
					],
					"port": "6060",
					"path": [
						"getIpDetailsForCustomer"
					]
				}
			},
			"response": []
		}
	]
}